<?xml version="1.0" encoding="UTF-8" standalone="no"?>
<svg
   xmlns:dc="http://purl.org/dc/elements/1.1/"
   xmlns:cc="http://creativecommons.org/ns#"
   xmlns:rdf="http://www.w3.org/1999/02/22-rdf-syntax-ns#"
   xmlns:svg="http://www.w3.org/2000/svg"
   xmlns="http://www.w3.org/2000/svg"
   viewBox="0 0 4.321528 5.9972224"
   id="svg2"
   height="5.9972224mm"
   width="4.321528mm"
   version="1.0">
  <metadata
     id="metadata11">
    <rdf:RDF>
      <cc:Work
         rdf:about="">
        <dc:format>image/svg+xml</dc:format>
        <dc:type
           rdf:resource="http://purl.org/dc/dcmitype/StillImage" />
      </cc:Work>
    </rdf:RDF>
  </metadata>
  <defs
     id="defs4">
    <pattern
       y="0"
       x="0"
       height="6"
       width="6"
       patternUnits="userSpaceOnUse"
       id="WMFhbasepattern" />
  </defs>
  <path
     id="path7"
     d="m 2.4694443,1.7638889 0,0 0.088194,0.1763889 0,0 0.1763889,0.088194 1.4993055,0 0,3.6159722 0,0 -0.088194,0.1763889 0,0 -0.1763889,0.088194 -3.70416666,0 0,0 -0.17638889,-0.088194 0,0 L -9.6594264e-8,5.6444444 l 0,-5.11527773 0,0 L 0.08819435,0.26458333 l 0,0 0.17638889,0 2.20486106,0 0,1.49930557 z m 0.7055556,2.5576389 0,-0.088195 0,0 0,-0.088194 0,0 -0.088194,0 -1.8520834,0 0,0 -0.1763889,0 0,0 0,0.088194 0,0.088195 0,0 0,0.088194 0,0 0.1763889,0.088195 1.8520834,0 0,0 0.088194,-0.088195 0,0 0,-0.088194 0,0 z m 0,-0.7055556 0,-0.088194 0,0 0,-0.088195 0,0 -0.088194,0 -1.8520834,0 0,0 -0.1763889,0 0,0 0,0.088195 0,0.088194 0,0 0,0.088195 0,0 0.1763889,0.088194 1.8520834,0 0,0 0.088194,-0.088194 0,0 0,-0.088195 0,0 z m 0,-0.79375 0,0 0,-0.088194 0,0 -0.088194,0 -1.8520834,0 0,0 -0.1763889,0 0,0 0,0.088194 0,0.088194 0,0 0,0.088194 0,0 0.1763889,0.088194 1.8520834,0 0,0 0.088194,-0.088194 0,0 0,-0.088194 0,-0.088194 z M 4.2333332,1.5875 l 0,0 -0.088194,-0.1763889 -1.0583333,-1.14652777 0,0 -0.1763889,0 -0.088195,0 0,1.41111107 1.4111111,0 0,-0.088194 z"
     style="fill:#bfbfbf;fill-opacity:1;fill-rule:nonzero;stroke:none" />
</svg>
