<?xml version="1.0" standalone="no"?>
<!-- Generator: Adobe Fireworks 10, Export SVG Extension by Aaron Beall (http://fireworks.abeall.com) . Version: 0.6.1  -->
<!DOCTYPE svg PUBLIC "-//W3C//DTD SVG 1.1//EN" "http://www.w3.org/Graphics/SVG/1.1/DTD/svg11.dtd">
<svg id="Untitled-Page%201" viewBox="0 0 17 16" style="background-color:#ffffff00" version="1.1"
	xmlns="http://www.w3.org/2000/svg" xmlns:xlink="http://www.w3.org/1999/xlink" xml:space="preserve"
	x="0px" y="0px" width="17px" height="16px"
>
	<g>
		<path d="M 8.6835 0.2499 C 10.0837 0.2499 11.3794 0.5988 12.5706 1.2968 C 13.7618 1.9947 14.7075 2.9374 15.4076 4.1249 C 16.1077 5.3124 16.4577 6.6041 16.4577 7.9999 C 16.4577 9.3957 16.1077 10.6874 15.4076 11.8749 C 14.7075 13.0624 13.7618 14.0051 12.5706 14.703 C 11.3794 15.4009 10.0837 15.7499 8.6835 15.7499 C 7.2833 15.7499 5.9876 15.4009 4.7964 14.703 C 3.6052 14.0051 2.6595 13.0624 1.9594 11.8749 C 1.2593 10.6874 0.9093 9.3957 0.9093 7.9999 C 0.9093 6.6041 1.2593 5.3124 1.9594 4.1249 C 2.6595 2.9374 3.6052 1.9947 4.7964 1.2968 C 5.9876 0.5988 7.2833 0.2499 8.6835 0.2499 L 8.6835 0.2499 ZM 8.6835 3.2499 C 7.9312 3.2499 7.2833 3.5207 6.74 4.0624 C 6.1966 4.6041 5.9249 5.2499 5.9249 5.9999 C 5.9249 6.7499 6.1966 7.3957 6.74 7.9374 C 7.2833 8.4791 7.9312 8.7499 8.6835 8.7499 C 9.4359 8.7499 10.0837 8.4791 10.6271 7.9374 C 11.1704 7.3957 11.4421 6.7499 11.4421 5.9999 C 11.4421 5.2499 11.1704 4.6041 10.6271 4.0624 C 10.0837 3.5207 9.4359 3.2499 8.6835 3.2499 L 8.6835 3.2499 ZM 8.6835 13.9999 C 9.5821 13.9999 10.4338 13.8124 11.2383 13.4374 C 12.0429 13.0624 12.7274 12.5416 13.2916 11.8749 C 12.9781 11.3124 12.5497 10.8593 12.0064 10.5155 C 11.463 10.1718 10.857 9.9999 10.1882 9.9999 C 10.1255 9.9999 10.0523 10.0103 9.9688 10.0311 C 9.5299 10.1769 9.1015 10.2499 8.6835 10.2499 C 8.2655 10.2499 7.8371 10.1769 7.3983 10.0311 C 7.3147 10.0103 7.2415 9.9999 7.1788 9.9999 C 6.5101 9.9999 5.9041 10.1718 5.3607 10.5155 C 4.8173 10.8593 4.3889 11.3124 4.0754 11.8749 C 4.6397 12.5416 5.3241 13.0624 6.1287 13.4374 C 6.9333 13.8124 7.7849 13.9999 8.6835 13.9999 L 8.6835 13.9999 Z" fill="#333333"/>
	</g>
</svg>