<?xml version="1.0" standalone="no"?>
<!-- Generator: Adobe Fireworks 10, Export SVG Extension by Aaron Beall (http://fireworks.abeall.com) . Version: 0.6.1  -->
<!DOCTYPE svg PUBLIC "-//W3C//DTD SVG 1.1//EN" "http://www.w3.org/Graphics/SVG/1.1/DTD/svg11.dtd">
<svg id="Untitled-Page%201" viewBox="0 0 30 30" style="background-color:#ffffff00" version="1.1"
	xmlns="http://www.w3.org/2000/svg" xmlns:xlink="http://www.w3.org/1999/xlink" xml:space="preserve"
	x="0px" y="0px" width="30px" height="30px"
>
	<path id="Ellipse" d="M 0 15 C 0 6.7156 6.7156 0 15 0 C 23.2844 0 30 6.7156 30 15 C 30 23.2844 23.2844 30 15 30 C 6.7156 30 0 23.2844 0 15 Z" fill="#ffe600"/>
	<g>
		<path d="M 21.5818 11.9996 C 21.6864 11.9996 21.7751 11.9632 21.8483 11.8902 C 21.9215 11.8173 21.958 11.7288 21.958 11.6246 L 21.958 10.4996 C 21.958 10.0829 21.8118 9.7288 21.5192 9.4371 C 21.2266 9.1454 20.8713 8.9996 20.4533 8.9996 L 18.9486 8.9996 L 18.9486 7.3746 C 18.9486 7.2704 18.9121 7.1819 18.8389 7.109 C 18.7657 7.036 18.677 6.9996 18.5725 6.9996 L 17.3186 6.9996 C 17.2141 6.9996 17.1253 7.036 17.0521 7.109 C 16.9789 7.1819 16.9424 7.2704 16.9424 7.3746 L 16.9424 8.9996 L 12.9299 8.9996 L 12.9299 7.3746 C 12.9299 7.2704 12.8933 7.1819 12.8202 7.109 C 12.747 7.036 12.6582 6.9996 12.5537 6.9996 L 11.2998 6.9996 C 11.1953 6.9996 11.1065 7.036 11.0333 7.109 C 10.9602 7.1819 10.9236 7.2704 10.9236 7.3746 L 10.9236 8.9996 L 9.4189 8.9996 C 9.0009 8.9996 8.6457 9.1454 8.3531 9.4371 C 8.0605 9.7288 7.9142 10.0829 7.9142 10.4996 L 7.9142 11.6246 C 7.9142 11.7288 7.9508 11.8173 8.024 11.8902 C 8.0971 11.9632 8.1859 11.9996 8.2904 11.9996 L 21.5818 11.9996 L 21.5818 11.9996 ZM 8.2904 12.9996 C 8.1859 12.9996 8.0971 13.0361 8.024 13.109 C 7.9508 13.1819 7.9142 13.2704 7.9142 13.3746 L 7.9142 21.4996 C 7.9142 21.9163 8.0605 22.2704 8.3531 22.5621 C 8.6457 22.8538 9.0009 22.9996 9.4189 22.9996 L 20.4533 22.9996 C 20.8713 22.9996 21.2266 22.8538 21.5192 22.5621 C 21.8118 22.2704 21.958 21.9163 21.958 21.4996 L 21.958 13.3746 C 21.958 13.2704 21.9215 13.1819 21.8483 13.109 C 21.7751 13.0361 21.6864 12.9996 21.5818 12.9996 L 8.2904 12.9996 L 8.2904 12.9996 ZM 11.9267 19.3746 L 11.9267 20.6246 C 11.9267 20.7288 11.8902 20.8173 11.817 20.8902 C 11.7439 20.9632 11.6551 20.9996 11.5506 20.9996 L 10.2967 20.9996 C 10.1921 20.9996 10.1034 20.9632 10.0302 20.8902 C 9.957 20.8173 9.9205 20.7288 9.9205 20.6246 L 9.9205 19.3746 C 9.9205 19.2704 9.957 19.1819 10.0302 19.109 C 10.1034 19.0361 10.1921 18.9996 10.2967 18.9996 L 11.5506 18.9996 C 11.6551 18.9996 11.7439 19.0361 11.817 19.109 C 11.8902 19.1819 11.9267 19.2704 11.9267 19.3746 L 11.9267 19.3746 ZM 11.9267 15.3746 L 11.9267 16.6246 C 11.9267 16.7288 11.8902 16.8173 11.817 16.8902 C 11.7439 16.9632 11.6551 16.9996 11.5506 16.9996 L 10.2967 16.9996 C 10.1921 16.9996 10.1034 16.9632 10.0302 16.8902 C 9.957 16.8173 9.9205 16.7288 9.9205 16.6246 L 9.9205 15.3746 C 9.9205 15.2704 9.957 15.1819 10.0302 15.109 C 10.1034 15.0361 10.1921 14.9996 10.2967 14.9996 L 11.5506 14.9996 C 11.6551 14.9996 11.7439 15.0361 11.817 15.109 C 11.8902 15.1819 11.9267 15.2704 11.9267 15.3746 L 11.9267 15.3746 ZM 15.9393 19.3746 L 15.9393 20.6246 C 15.9393 20.7288 15.9027 20.8173 15.8295 20.8902 C 15.7564 20.9632 15.6676 20.9996 15.5631 20.9996 L 14.3092 20.9996 C 14.2047 20.9996 14.1159 20.9632 14.0427 20.8902 C 13.9695 20.8173 13.933 20.7288 13.933 20.6246 L 13.933 19.3746 C 13.933 19.2704 13.9695 19.1819 14.0427 19.109 C 14.1159 19.0361 14.2047 18.9996 14.3092 18.9996 L 15.5631 18.9996 C 15.6676 18.9996 15.7564 19.0361 15.8295 19.109 C 15.9027 19.1819 15.9393 19.2704 15.9393 19.3746 L 15.9393 19.3746 ZM 15.9393 15.3746 L 15.9393 16.6246 C 15.9393 16.7288 15.9027 16.8173 15.8295 16.8902 C 15.7564 16.9632 15.6676 16.9996 15.5631 16.9996 L 14.3092 16.9996 C 14.2047 16.9996 14.1159 16.9632 14.0427 16.8902 C 13.9695 16.8173 13.933 16.7288 13.933 16.6246 L 13.933 15.3746 C 13.933 15.2704 13.9695 15.1819 14.0427 15.109 C 14.1159 15.0361 14.2047 14.9996 14.3092 14.9996 L 15.5631 14.9996 C 15.6676 14.9996 15.7564 15.0361 15.8295 15.109 C 15.9027 15.1819 15.9393 15.2704 15.9393 15.3746 L 15.9393 15.3746 ZM 19.9518 19.3746 L 19.9518 20.6246 C 19.9518 20.7288 19.9152 20.8173 19.842 20.8902 C 19.7689 20.9632 19.6801 20.9996 19.5756 20.9996 L 18.3217 20.9996 C 18.2172 20.9996 18.1284 20.9632 18.0552 20.8902 C 17.9821 20.8173 17.9455 20.7288 17.9455 20.6246 L 17.9455 19.3746 C 17.9455 19.2704 17.9821 19.1819 18.0552 19.109 C 18.1284 19.0361 18.2172 18.9996 18.3217 18.9996 L 19.5756 18.9996 C 19.6801 18.9996 19.7689 19.0361 19.842 19.109 C 19.9152 19.1819 19.9518 19.2704 19.9518 19.3746 L 19.9518 19.3746 ZM 19.9518 15.3746 L 19.9518 16.6246 C 19.9518 16.7288 19.9152 16.8173 19.842 16.8902 C 19.7689 16.9632 19.6801 16.9996 19.5756 16.9996 L 18.3217 16.9996 C 18.2172 16.9996 18.1284 16.9632 18.0552 16.8902 C 17.9821 16.8173 17.9455 16.7288 17.9455 16.6246 L 17.9455 15.3746 C 17.9455 15.2704 17.9821 15.1819 18.0552 15.109 C 18.1284 15.0361 18.2172 14.9996 18.3217 14.9996 L 19.5756 14.9996 C 19.6801 14.9996 19.7689 15.0361 19.842 15.109 C 19.9152 15.1819 19.9518 15.2704 19.9518 15.3746 L 19.9518 15.3746 Z" fill="#333333"/>
	</g>
</svg>