<?xml version="1.0" standalone="no"?>
<!-- Generator: Adobe Fireworks 10, Export SVG Extension by Aaron Beall (http://fireworks.abeall.com) . Version: 0.6.1  -->
<!DOCTYPE svg PUBLIC "-//W3C//DTD SVG 1.1//EN" "http://www.w3.org/Graphics/SVG/1.1/DTD/svg11.dtd">
<svg id="Untitled-Page%201" viewBox="0 0 52 47" style="background-color:#ffffff00" version="1.1"
	xmlns="http://www.w3.org/2000/svg" xmlns:xlink="http://www.w3.org/1999/xlink" xml:space="preserve"
	x="0px" y="0px" width="52px" height="47px"
>
	<g>
		<path d="M 49.6486 20.625 C 49.6486 21.4453 49.4017 22.1973 48.908 22.8809 C 48.4143 23.5645 47.7834 24.043 47.0154 24.3164 L 47.0154 33.75 C 47.0154 35.2266 46.5079 36.4707 45.493 37.4825 C 44.4782 38.4942 43.2301 39 41.749 39 L 41.0084 38.3438 C 38.7592 36.4297 37.0037 35.0078 35.742 34.0782 C 33.5476 32.4922 31.3807 31.2617 29.2412 30.3867 C 26.6629 29.3477 23.9474 28.7461 21.0948 28.5821 C 19.7782 29.0196 18.8867 29.8672 18.4204 31.125 C 17.9541 32.3828 18.0501 33.5039 18.7084 34.4883 C 18.9279 34.8164 18.9553 35.1446 18.7907 35.4727 C 18.4067 36.4024 18.4067 37.3047 18.7907 38.1797 C 19.065 38.8907 19.6136 39.6563 20.4365 40.4766 C 20.985 40.9688 21.1908 41.5567 21.0536 42.2403 C 20.9165 42.9239 20.5188 43.4024 19.8605 43.6758 C 18.8181 44.1133 17.4878 44.291 15.8695 44.209 C 14.2512 44.127 13.0032 43.8125 12.1254 43.2657 C 11.7414 43.0469 11.4671 42.6914 11.3026 42.1992 L 10.8911 41.0508 C 10.0682 38.4805 9.5471 36.5117 9.3276 35.1446 C 8.9985 32.8477 9.1356 30.6328 9.7391 28.5 L 6.2007 28.5 C 5.1035 28.5 4.171 28.1172 3.4029 27.3516 C 2.6349 26.586 2.2509 25.6563 2.2509 24.5625 L 2.2509 16.6875 C 2.2509 15.5938 2.6349 14.6641 3.4029 13.8985 C 4.171 13.1328 5.1035 12.75 6.2007 12.75 L 19.3667 12.75 C 22.5485 12.75 25.5383 12.2305 28.3361 11.1914 C 30.695 10.3164 33.0265 9.0586 35.3305 7.418 C 36.7569 6.4336 38.6495 4.9297 41.0084 2.9063 L 41.749 2.25 C 43.2301 2.25 44.4782 2.7559 45.493 3.7676 C 46.5079 4.7793 47.0154 6.0235 47.0154 7.5 L 47.0154 16.9336 C 47.7834 17.2071 48.4143 17.6856 48.908 18.3692 C 49.4017 19.0528 49.6486 19.8047 49.6486 20.625 L 49.6486 20.625 ZM 41.749 32.1094 L 41.749 9.1407 C 39.006 11.4375 36.4003 13.2149 33.9316 14.4727 C 30.5304 16.2227 26.9921 17.3164 23.3165 17.7539 L 23.3165 23.4961 C 26.9921 23.9336 30.5304 25.0274 33.9316 26.7774 C 36.4003 28.0352 39.006 29.8125 41.749 32.1094 L 41.749 32.1094 Z" stroke="#ffe600" stroke-width="2" fill="none"/>
	</g>
</svg>