<?xml version="1.0" standalone="no"?>
<!-- Generator: Adobe Fireworks 10, Export SVG Extension by Aaron Beall (http://fireworks.abeall.com) . Version: 0.6.1  -->
<!DOCTYPE svg PUBLIC "-//W3C//DTD SVG 1.1//EN" "http://www.w3.org/Graphics/SVG/1.1/DTD/svg11.dtd">
<svg id="Untitled-Page%201" viewBox="0 0 37 25" style="background-color:#ffffff00" version="1.1"
	xmlns="http://www.w3.org/2000/svg" xmlns:xlink="http://www.w3.org/1999/xlink" xml:space="preserve"
	x="0px" y="0px" width="37px" height="25px"
>
	<path d="M 36.8545 0.6914 L 36.8545 15.6143 L 35.0098 16.5078 L 28.4648 3.0996 L 35.1299 -0.1094 L 35.2227 -0.1484 L 35.3203 -0.1865 L 35.4023 -0.2139 L 35.4951 -0.2354 L 35.582 -0.2412 L 35.6641 -0.252 L 35.8281 -0.252 L 35.9746 -0.2354 L 36.1172 -0.1865 L 36.248 -0.1377 L 36.374 -0.0605 L 36.4766 0.0098 L 36.5703 0.1074 L 36.6582 0.2002 L 36.7236 0.3037 L 36.7773 0.3965 L 36.8164 0.5 L 36.8438 0.5928 L 36.8545 0.6914 ZM 27.5918 15.1729 L 31.9365 13.3955 L 32.6133 14.7471 L 28.7314 16.3389 L 27.5918 15.1729 ZM 8.9443 24.291 L 7.3125 22.3232 L 6.7109 22.3232 L 6.5801 22.3174 L 6.4551 22.3066 L 6.3242 22.2793 L 6.2031 22.2471 L 6.0898 22.2139 L 5.9639 22.1543 L 5.8545 22.0996 L 5.751 22.0391 L 5.6465 21.9678 L 5.543 21.8926 L 5.4512 21.8057 L 5.3633 21.7129 L 5.2871 21.6191 L 5.2109 21.5215 L 5.1445 21.4131 L 5.0898 21.3096 L 5.0352 21.1953 L 4.998 21.0752 L 4.959 20.9609 L 4.9316 20.835 L 4.9219 20.7041 L 4.9102 20.584 L 4.9219 20.4531 L 4.9375 20.3174 L 4.9648 20.1865 L 5.002 20.0557 L 5.0625 19.9248 L 5.1289 19.7939 L 5.2051 19.6631 L 5.2979 19.5273 L 5.4014 19.3965 L 5.5215 19.2764 L 6.0234 19.8379 L 5.958 19.9141 L 5.8984 19.9902 L 5.8545 20.0664 L 5.8057 20.1426 L 5.7676 20.2129 L 5.7402 20.29 L 5.7236 20.3662 L 5.7012 20.4424 L 5.6914 20.5186 L 5.6855 20.584 L 5.6855 20.6602 L 5.6914 20.7305 L 5.7236 20.8682 L 5.7676 20.999 L 5.8438 21.1191 L 5.9316 21.2334 L 6.0352 21.3252 L 6.1445 21.4131 L 6.2695 21.4785 L 6.4111 21.5215 L 6.5527 21.5596 L 6.7109 21.5703 L 7.5684 21.5703 L 8.3594 22.4541 L 9.4463 23.7344 L 8.9443 24.291 ZM 27.2852 17.0088 L 27.2852 17.0088 L 27.3076 17.0254 L 27.3242 17.0635 L 27.3516 17.1553 L 27.373 17.2861 L 27.373 17.4238 L 27.3613 17.5703 L 27.3457 17.6475 L 27.3242 17.7227 L 27.2852 17.7891 L 27.2578 17.8535 L 27.2148 17.9082 L 27.1543 17.9688 L 25.6094 19.5 L 25.6211 19.6523 L 25.6094 19.8105 L 25.582 19.9736 L 25.5439 20.1211 L 25.4902 20.2852 L 25.4131 20.4209 L 25.3262 20.5576 L 25.2715 20.6113 L 25.2227 20.6602 L 23.5186 22.2305 L 23.459 22.2842 L 23.3926 22.334 L 23.3281 22.3721 L 23.252 22.4102 L 23.1094 22.4639 L 22.9727 22.5029 L 22.8203 22.5137 L 22.6621 22.5137 L 22.5098 22.5029 L 22.3555 22.4639 L 21.1504 23.4727 L 21.0078 23.5879 L 20.8652 23.6689 L 20.7295 23.7344 L 20.5654 23.7949 L 20.418 23.8213 L 20.2441 23.833 L 20.0742 23.833 L 19.9004 23.7998 L 19.5781 23.7344 L 18.7266 24.4219 L 18.6445 24.4863 L 18.5518 24.5527 L 18.4639 24.6016 L 18.3711 24.6553 L 18.2793 24.6934 L 18.1797 24.7314 L 18.0762 24.7695 L 17.9834 24.792 L 17.8799 24.8193 L 17.7773 24.8301 L 17.5586 24.8467 L 17.334 24.835 L 17.0996 24.8086 L 13.3926 24.2354 L 13.0703 24.1758 L 12.7539 24.1211 L 12.4316 24.0449 L 12.2793 24.002 L 12.1318 23.9531 L 11.9785 23.8975 L 11.8379 23.833 L 11.6895 23.7559 L 11.5527 23.6689 L 11.417 23.5879 L 11.291 23.4834 L 11.1602 23.3701 L 11.0459 23.2383 L 4.752 16.1152 L 3.8613 15.6787 L 4.5332 14.333 L 5.6748 14.8779 L 11.668 21.6963 L 11.875 21.9092 L 12.0664 22.1104 L 12.2412 22.2686 L 12.4316 22.3994 L 12.5244 22.4541 L 12.623 22.5137 L 12.7158 22.5518 L 12.8203 22.5957 L 12.9238 22.6289 L 13.0381 22.6602 L 13.2617 22.6992 L 17.1816 23.2822 L 17.3125 23.3037 L 17.4375 23.3037 L 17.5527 23.293 L 17.6563 23.2773 L 17.749 23.2441 L 17.8301 23.2119 L 17.9082 23.1621 L 17.9834 23.1074 L 18.6934 22.4639 L 18.7852 22.3994 L 18.8682 22.334 L 18.9668 22.2842 L 19.0596 22.2412 L 19.1631 22.2139 L 19.2559 22.1914 L 19.3486 22.1758 L 19.4531 22.1758 L 19.5508 22.1758 L 19.6543 22.1816 L 19.7471 22.2031 L 19.8506 22.2197 L 19.9434 22.2578 L 20.041 22.2959 L 20.2266 22.3828 L 21.4551 21.2598 L 21.5264 21.1953 L 21.6025 21.1406 L 21.6904 21.1016 L 21.7725 21.0645 L 21.8594 21.0361 L 21.9414 21.0088 L 22.0293 20.999 L 22.1104 20.9873 L 22.2744 20.9873 L 22.416 20.999 L 22.5469 21.0254 L 22.6504 21.0645 L 24.1191 19.6904 L 24.0918 19.5762 L 24.0762 19.4453 L 24.0762 19.3037 L 24.0918 19.1455 L 24.1084 19.0693 L 24.1299 18.9932 L 24.1572 18.917 L 24.1953 18.835 L 24.2344 18.7578 L 24.2832 18.6934 L 24.3379 18.6172 L 24.4023 18.5518 L 25.7617 17.2813 L 25.8281 17.2051 L 25.8711 17.1182 L 25.9102 17.0361 L 25.9316 16.9434 L 25.9375 16.8457 L 25.9209 16.7529 L 25.8926 16.6768 L 25.8662 16.6377 L 25.833 16.6006 L 19.9277 10.5225 L 15.041 12.376 L 14.9102 12.4248 L 14.7793 12.4688 L 14.6484 12.502 L 14.5234 12.5293 L 14.3926 12.54 L 14.2715 12.5449 L 14.1465 12.5566 L 14.0371 12.5449 L 13.9121 12.54 L 13.7969 12.5176 L 13.6875 12.4902 L 13.584 12.4639 L 13.4697 12.4248 L 13.3545 12.3867 L 13.1465 12.2842 L 11.9355 11.6514 L 15.6855 7.6729 L 8.916 5.585 L 9.6055 4.2168 L 16.0996 6.2227 L 16.6572 5.6777 L 16.8652 5.4873 L 17.0605 5.3184 L 17.1758 5.2422 L 17.2793 5.1709 L 17.3887 5.0996 L 17.5146 5.0352 L 17.623 4.9912 L 17.7598 4.9424 L 17.8906 4.8926 L 18.0322 4.8662 L 18.1748 4.8389 L 18.3223 4.8223 L 18.4912 4.8008 L 18.6602 4.8008 L 24.8301 4.8008 L 27.1104 3.749 L 27.7773 5.0947 L 25.1406 6.3047 L 18.6602 6.3047 L 18.5684 6.3047 L 18.4863 6.3271 L 18.3984 6.3438 L 18.3057 6.3652 L 18.2188 6.4033 L 18.125 6.4414 L 17.957 6.5332 L 17.7871 6.6484 L 17.6182 6.7793 L 17.4648 6.9209 L 17.3125 7.0684 L 13.1689 11.4443 L 13.415 11.5693 L 13.5625 11.6406 L 13.7041 11.7002 L 13.835 11.7441 L 13.9766 11.7822 L 14.1299 11.793 L 14.2773 11.793 L 14.4297 11.7773 L 14.5996 11.7383 L 14.7793 11.6787 L 20.123 9.6455 L 21.8984 11.4717 L 22.3281 11.5205 L 22.7656 11.5586 L 23.1855 11.5693 L 23.623 11.5693 L 24.0547 11.5479 L 24.4902 11.5205 L 24.9219 11.4658 L 25.3477 11.4004 L 25.4785 12.1416 L 25.1406 12.1963 L 24.791 12.2451 L 24.4414 12.2725 L 24.1035 12.2998 L 23.7539 12.3213 L 23.4043 12.3213 L 23.0547 12.3213 L 22.7051 12.2998 L 27.2852 17.0088 ZM 0.084 0.6914 L 0.084 0.6914 L 0.0957 0.5928 L 0.123 0.5 L 0.1611 0.3965 L 0.2158 0.3037 L 0.2813 0.2002 L 0.3682 0.1074 L 0.4609 0.0098 L 0.5762 -0.0605 L 0.6904 -0.1377 L 0.8223 -0.1865 L 0.9629 -0.2354 L 1.1113 -0.252 L 1.2754 -0.252 L 1.3564 -0.2412 L 1.4492 -0.2354 L 1.5371 -0.2139 L 1.6182 -0.1865 L 1.7168 -0.1484 L 1.8096 -0.1094 L 8.4854 3.0996 L 1.9404 16.5078 L 0.084 15.6143 L 0.084 0.6914 Z" fill="#202020"/>
</svg>