<?xml version="1.0" standalone="no"?>
<!-- Generator: Adobe Fireworks 10, Export SVG Extension by Aaron Beall (http://fireworks.abeall.com) . Version: 0.6.1  -->
<!DOCTYPE svg PUBLIC "-//W3C//DTD SVG 1.1//EN" "http://www.w3.org/Graphics/SVG/1.1/DTD/svg11.dtd">
<svg id="Untitled-Page%201" viewBox="0 0 17 13" style="background-color:#ffffff00" version="1.1"
	xmlns="http://www.w3.org/2000/svg" xmlns:xlink="http://www.w3.org/1999/xlink" xml:space="preserve"
	x="0px" y="0px" width="17px" height="13px"
>
	<g>
		<path d="M 16.5357 4.9687 C 15.7833 5.552 14.1741 6.7291 11.7081 8.5 L 11.3947 8.75 C 10.914 9.125 10.5169 9.3958 10.2035 9.5625 C 9.7019 9.8541 9.2422 10 8.8242 10 C 8.4062 10 7.9464 9.8646 7.4449 9.5937 C 7.1523 9.4271 6.7552 9.1562 6.2537 8.7812 L 5.9402 8.5 C 3.4115 6.6666 1.8023 5.4895 1.1126 4.9687 C 1.0499 4.927 0.982 4.9218 0.9089 4.9531 C 0.8357 4.9843 0.7992 5.0416 0.7992 5.125 L 0.7992 11.5 C 0.7992 11.9166 0.9454 12.2708 1.238 12.5625 C 1.5306 12.8541 1.8859 13 2.3038 13 L 15.3445 13 C 15.7625 13 16.1177 12.8541 16.4103 12.5625 C 16.7029 12.2708 16.8492 11.9166 16.8492 11.5 L 16.8492 5.125 C 16.8492 5.0416 16.8126 4.9791 16.7394 4.9375 C 16.6663 4.8958 16.5984 4.9062 16.5357 4.9687 L 16.5357 4.9687 ZM 8.8242 9 C 8.5525 9 8.2181 8.875 7.821 8.625 C 7.5911 8.5 7.2672 8.2708 6.8492 7.9375 L 6.5358 7.7187 C 3.9653 5.8437 2.2203 4.552 1.3007 3.8437 L 1.0813 3.6875 C 0.8932 3.5416 0.7992 3.3437 0.7992 3.0937 L 0.7992 2.5 C 0.7992 2.0833 0.9454 1.7291 1.238 1.4375 C 1.5306 1.1458 1.8859 1 2.3038 1 L 15.3445 1 C 15.7625 1 16.1177 1.1458 16.4103 1.4375 C 16.7029 1.7291 16.8492 2.0833 16.8492 2.5 L 16.8492 3.0937 C 16.8492 3.3437 16.7551 3.5416 16.567 3.6875 L 16.4103 3.8125 C 15.5117 4.5208 13.7457 5.8229 11.1125 7.7187 L 10.7991 7.9375 C 10.3811 8.2708 10.0572 8.5 9.8273 8.625 C 9.4302 8.875 9.0958 9 8.8242 9 L 8.8242 9 Z" fill="#f0f0f0"/>
	</g>
</svg>