<?xml version="1.0" standalone="no"?>
<!-- Generator: Adobe Fireworks 10, Export SVG Extension by Aaron Beall (http://fireworks.abeall.com) . Version: 0.6.1  -->
<!DOCTYPE svg PUBLIC "-//W3C//DTD SVG 1.1//EN" "http://www.w3.org/Graphics/SVG/1.1/DTD/svg11.dtd">
<svg id="Untitled-Page%201" viewBox="0 0 42 47" style="background-color:#ffffff00" version="1.1"
	xmlns="http://www.w3.org/2000/svg" xmlns:xlink="http://www.w3.org/1999/xlink" xml:space="preserve"
	x="0px" y="0px" width="42px" height="47px"
>
	<g>
		<path d="M 2.2668 40.3125 C 2.2668 41.4063 2.6508 42.336 3.4188 43.1016 C 4.1868 43.8672 5.1194 44.25 6.2166 44.25 L 35.1818 44.25 C 36.279 44.25 37.2116 43.8672 37.9796 43.1016 C 38.7476 42.336 39.1316 41.4063 39.1316 40.3125 L 39.1316 6.1875 C 39.1316 5.0938 38.7476 4.1641 37.9796 3.3985 C 37.2116 2.6328 36.279 2.25 35.1818 2.25 L 6.2166 2.25 C 5.1194 2.25 4.1868 2.6328 3.4188 3.3985 C 2.6508 4.1641 2.2668 5.0938 2.2668 6.1875 L 2.2668 40.3125 L 2.2668 40.3125 ZM 33.8652 17.0157 C 33.8652 17.2891 33.7692 17.5215 33.5772 17.7129 C 33.3852 17.9043 33.152 18 32.8778 18 L 8.5206 18 C 8.2463 18 8.0132 17.9043 7.8212 17.7129 C 7.6292 17.5215 7.5332 17.2891 7.5332 17.0157 L 7.5332 8.4844 C 7.5332 8.211 7.6292 7.9785 7.8212 7.7871 C 8.0132 7.5957 8.2463 7.5 8.5206 7.5 L 32.8778 7.5 C 33.152 7.5 33.3852 7.5957 33.5772 7.7871 C 33.7692 7.9785 33.8652 8.211 33.8652 8.4844 L 33.8652 17.0157 L 33.8652 17.0157 ZM 12.7996 27.5157 C 12.7996 27.7891 12.7036 28.0215 12.5116 28.2129 C 12.3196 28.4043 12.0864 28.5 11.8121 28.5 L 8.5206 28.5 C 8.2463 28.5 8.0132 28.4043 7.8212 28.2129 C 7.6292 28.0215 7.5332 27.7891 7.5332 27.5157 L 7.5332 24.2344 C 7.5332 23.961 7.6292 23.7285 7.8212 23.5371 C 8.0132 23.3457 8.2463 23.25 8.5206 23.25 L 11.8121 23.25 C 12.0864 23.25 12.3196 23.3457 12.5116 23.5371 C 12.7036 23.7285 12.7996 23.961 12.7996 24.2344 L 12.7996 27.5157 L 12.7996 27.5157 ZM 33.8652 38.0157 C 33.8652 38.2891 33.7692 38.5215 33.5772 38.7129 C 33.3852 38.9043 33.152 39 32.8778 39 L 29.5863 39 C 29.312 39 29.0788 38.9043 28.8868 38.7129 C 28.6948 38.5215 28.5988 38.2891 28.5988 38.0157 L 28.5988 24.2344 C 28.5988 23.961 28.6948 23.7285 28.8868 23.5371 C 29.0788 23.3457 29.312 23.25 29.5863 23.25 L 32.8778 23.25 C 33.152 23.25 33.3852 23.3457 33.5772 23.5371 C 33.7692 23.7285 33.8652 23.961 33.8652 24.2344 L 33.8652 38.0157 L 33.8652 38.0157 ZM 12.7996 38.0157 C 12.7996 38.2891 12.7036 38.5215 12.5116 38.7129 C 12.3196 38.9043 12.0864 39 11.8121 39 L 8.5206 39 C 8.2463 39 8.0132 38.9043 7.8212 38.7129 C 7.6292 38.5215 7.5332 38.2891 7.5332 38.0157 L 7.5332 34.7344 C 7.5332 34.461 7.6292 34.2285 7.8212 34.0371 C 8.0132 33.8457 8.2463 33.75 8.5206 33.75 L 11.8121 33.75 C 12.0864 33.75 12.3196 33.8457 12.5116 34.0371 C 12.7036 34.2285 12.7996 34.461 12.7996 34.7344 L 12.7996 38.0157 L 12.7996 38.0157 ZM 23.3324 27.5157 C 23.3324 27.7891 23.2364 28.0215 23.0444 28.2129 C 22.8524 28.4043 22.6192 28.5 22.3449 28.5 L 19.0534 28.5 C 18.7792 28.5 18.546 28.4043 18.354 28.2129 C 18.162 28.0215 18.066 27.7891 18.066 27.5157 L 18.066 24.2344 C 18.066 23.961 18.162 23.7285 18.354 23.5371 C 18.546 23.3457 18.7792 23.25 19.0534 23.25 L 22.3449 23.25 C 22.6192 23.25 22.8524 23.3457 23.0444 23.5371 C 23.2364 23.7285 23.3324 23.961 23.3324 24.2344 L 23.3324 27.5157 L 23.3324 27.5157 ZM 23.3324 38.0157 C 23.3324 38.2891 23.2364 38.5215 23.0444 38.7129 C 22.8524 38.9043 22.6192 39 22.3449 39 L 19.0534 39 C 18.7792 39 18.546 38.9043 18.354 38.7129 C 18.162 38.5215 18.066 38.2891 18.066 38.0157 L 18.066 34.7344 C 18.066 34.461 18.162 34.2285 18.354 34.0371 C 18.546 33.8457 18.7792 33.75 19.0534 33.75 L 22.3449 33.75 C 22.6192 33.75 22.8524 33.8457 23.0444 34.0371 C 23.2364 34.2285 23.3324 34.461 23.3324 34.7344 L 23.3324 38.0157 L 23.3324 38.0157 Z" stroke="#ffe500" stroke-width="2" fill="none"/>
	</g>
</svg>