<?xml version="1.0" standalone="no"?>
<!-- Generator: Adobe Fireworks 10, Export SVG Extension by Aaron Beall (http://fireworks.abeall.com) . Version: 0.6.1  -->
<!DOCTYPE svg PUBLIC "-//W3C//DTD SVG 1.1//EN" "http://www.w3.org/Graphics/SVG/1.1/DTD/svg11.dtd">
<svg id="Untitled-Page%201" viewBox="0 0 37 47" style="background-color:#ffffff00" version="1.1"
	xmlns="http://www.w3.org/2000/svg" xmlns:xlink="http://www.w3.org/1999/xlink" xml:space="preserve"
	x="0px" y="0px" width="37px" height="47px"
>
	<g>
		<path d="M 21.2077 13.4063 C 21.2077 13.9532 21.3997 14.418 21.7837 14.8008 C 22.1677 15.1836 22.634 15.375 23.1826 15.375 L 34.3737 15.375 L 34.3737 42.2813 C 34.3737 42.8282 34.1817 43.293 33.7977 43.6758 C 33.4137 44.0586 32.9474 44.25 32.3988 44.25 L 4.7502 44.25 C 4.2016 44.25 3.7353 44.0586 3.3513 43.6758 C 2.9673 43.293 2.7753 42.8282 2.7753 42.2813 L 2.7753 4.2188 C 2.7753 3.6719 2.9673 3.2071 3.3513 2.8242 C 3.7353 2.4414 4.2016 2.25 4.7502 2.25 L 21.2077 2.25 L 21.2077 13.4063 L 21.2077 13.4063 ZM 26.4741 32.7657 L 26.4741 32.1094 C 26.4741 31.836 26.3781 31.6035 26.1861 31.4121 C 25.9941 31.2207 25.7609 31.125 25.4866 31.125 L 11.6623 31.125 C 11.388 31.125 11.1549 31.2207 10.9629 31.4121 C 10.7709 31.6035 10.6749 31.836 10.6749 32.1094 L 10.6749 32.7657 C 10.6749 33.0391 10.7709 33.2715 10.9629 33.4629 C 11.1549 33.6543 11.388 33.75 11.6623 33.75 L 25.4866 33.75 C 25.7609 33.75 25.9941 33.6543 26.1861 33.4629 C 26.3781 33.2715 26.4741 33.0391 26.4741 32.7657 L 26.4741 32.7657 ZM 26.4741 27.5157 L 26.4741 26.8594 C 26.4741 26.586 26.3781 26.3535 26.1861 26.1621 C 25.9941 25.9707 25.7609 25.875 25.4866 25.875 L 11.6623 25.875 C 11.388 25.875 11.1549 25.9707 10.9629 26.1621 C 10.7709 26.3535 10.6749 26.586 10.6749 26.8594 L 10.6749 27.5157 C 10.6749 27.7891 10.7709 28.0215 10.9629 28.2129 C 11.1549 28.4043 11.388 28.5 11.6623 28.5 L 25.4866 28.5 C 25.7609 28.5 25.9941 28.4043 26.1861 28.2129 C 26.3781 28.0215 26.4741 27.7891 26.4741 27.5157 L 26.4741 27.5157 ZM 26.4741 21.6094 C 26.4741 21.336 26.3781 21.1035 26.1861 20.9121 C 25.9941 20.7207 25.7609 20.625 25.4866 20.625 L 11.6623 20.625 C 11.388 20.625 11.1549 20.7207 10.9629 20.9121 C 10.7709 21.1035 10.6749 21.336 10.6749 21.6094 L 10.6749 22.2657 C 10.6749 22.5391 10.7709 22.7715 10.9629 22.9629 C 11.1549 23.1543 11.388 23.25 11.6623 23.25 L 25.4866 23.25 C 25.7609 23.25 25.9941 23.1543 26.1861 22.9629 C 26.3781 22.7715 26.4741 22.5391 26.4741 22.2657 L 26.4741 21.6094 L 26.4741 21.6094 ZM 34.3737 12.2578 C 34.3737 11.711 34.1817 11.2461 33.7977 10.8633 L 25.7335 2.8242 C 25.3495 2.4414 24.8832 2.25 24.3346 2.25 L 23.8409 2.25 L 23.8409 12.75 L 34.3737 12.75 L 34.3737 12.2578 L 34.3737 12.2578 Z" stroke="#ffe500" stroke-width="2" fill="none"/>
	</g>
</svg>