<?xml version="1.0" standalone="no"?>
<!-- Generator: Adobe Fireworks 10, Export SVG Extension by Aaron Beall (http://fireworks.abeall.com) . Version: 0.6.1  -->
<!DOCTYPE svg PUBLIC "-//W3C//DTD SVG 1.1//EN" "http://www.w3.org/Graphics/SVG/1.1/DTD/svg11.dtd">
<svg id="Untitled-Page%201" viewBox="0 0 31 36" style="background-color:#ffffff00" version="1.1"
	xmlns="http://www.w3.org/2000/svg" xmlns:xlink="http://www.w3.org/1999/xlink" xml:space="preserve"
	x="0px" y="0px" width="31px" height="36px"
>
	<path d="M 9.8989 28.5474 L 10.0845 27.7998 L 9.9351 27.8379 L 9.7783 27.8818 L 9.6279 27.9272 L 9.4927 27.9795 L 9.3643 28.0469 L 9.2437 28.106 L 9.1294 28.1807 L 9.0298 28.2637 L 8.9365 28.3457 L 8.8584 28.4268 L 8.7876 28.5024 L 8.7305 28.6064 L 8.6733 28.6958 L 8.6382 28.7925 L 8.6235 28.8901 L 8.6162 28.9956 L 8.6235 29.0542 L 8.6299 29.1216 L 8.6382 29.1816 L 8.6655 29.2417 L 8.687 29.3086 L 8.7153 29.3687 L 8.7939 29.4883 L 8.8867 29.6001 L 9.0015 29.6968 L 9.1294 29.7944 L 9.2788 29.8838 L 9.4429 29.9648 L 9.6143 30.0405 L 9.792 30.1006 L 9.9922 30.1528 L 10.1987 30.1973 L 10.4189 30.2344 L 10.6475 30.2583 L 10.8687 30.2583 L 11.1035 30.2583 L 11.3247 30.2344 L 11.5386 30.1973 L 11.7524 30.1528 L 11.9453 30.1006 L 12.1304 30.0405 L 12.3086 29.9648 L 12.4727 29.8838 L 12.6152 29.7944 L 12.7437 29.6968 L 12.8579 29.6001 L 12.9507 29.4883 L 13.0293 29.3687 L 13.0566 29.3086 L 13.0791 29.2417 L 13.1074 29.1816 L 13.1138 29.1216 L 13.1211 29.0542 L 13.1289 28.9956 L 13.1211 28.8838 L 13.1001 28.7861 L 13.064 28.6958 L 13.022 28.5991 L 12.957 28.5024 L 12.8799 28.4131 L 12.8071 28.3384 L 12.7075 28.2563 L 13.6128 24.7905 L 17.1841 22.4761 L 20.5503 24.4478 L 14.0835 28.8164 L 21.5117 33.6177 L 18.2251 36.1045 L 10.7544 31.064 L 3.3052 36.0972 L 0.0117 33.6177 L 7.4185 28.8164 L 0.9526 24.4478 L 4.3032 22.4761 L 10.4336 26.4487 L 17.0562 0.5347 L 30.5361 9.8022 L 17.0127 11.8032 L 17.4063 10.2871 L 26.7231 8.9067 L 17.8984 2.8345 L 11.2256 28.9199 L 11.2041 29.0029 L 11.168 29.084 L 11.1323 29.1445 L 11.0898 29.2119 L 11.04 29.2637 L 10.9966 29.3086 L 10.9395 29.353 L 10.8823 29.3906 L 10.8262 29.4131 L 10.769 29.436 L 10.7046 29.4424 L 10.6328 29.4507 L 10.5767 29.458 L 10.5044 29.4507 L 10.4482 29.4424 L 10.3765 29.436 L 10.3203 29.4063 L 10.2559 29.3906 L 10.2061 29.353 L 10.1489 29.3159 L 10.0918 29.2783 L 10.0483 29.2339 L 10.0059 29.1816 L 9.9775 29.1299 L 9.9424 29.0776 L 9.9126 29.0103 L 9.8853 28.9355 L 9.8706 28.8682 L 9.8706 28.7925 L 9.8706 28.7114 L 9.8779 28.6284 L 9.8989 28.5474 Z" fill="#ffe600"/>
</svg>