<?xml version="1.0" encoding="utf-8"?>
<!-- Generator: Adobe Illustrator 16.0.0, SVG Export Plug-In . SVG Version: 6.00 Build 0)  -->
<!DOCTYPE svg PUBLIC "-//W3C//DTD SVG 1.1//EN" "http://www.w3.org/Graphics/SVG/1.1/DTD/svg11.dtd">
<svg version="1.1" id="Layer_1" xmlns="http://www.w3.org/2000/svg" xmlns:xlink="http://www.w3.org/1999/xlink" x="0px" y="0px"
	 width="31px" height="31px" viewBox="0 0 31 31" enable-background="new 0 0 31 31" xml:space="preserve">
<g>
	<polygon fill="#FFFFFF" points="5.313,24.844 10.801,24.844 10.801,21.658 5.313,21.658 5.313,19.153 11.383,19.153 9.37,15.663 
		0.762,15.663 0.762,30.838 12.902,30.838 12.902,27.348 5.313,27.348 	"/>
	<polygon fill="#FFFFFF" points="20.981,15.663 18.403,20.615 15.832,15.663 10.8,15.663 16.103,24.844 16.103,30.838 20.64,30.838 
		20.64,24.844 25.949,15.663 	"/>
	<polygon id="Small_Beam" fill="#FFE600" points="30.5,0.162 0.5,11.111 30.5,5.812 	"/>
</g>
</svg>
